Total time = 1.936134 seconds
Total time = 1.322436 seconds
Total time = 1.320677 seconds
Total time = 1.320848 seconds
Total time = 1.319885 seconds
Total time = 1.320185 seconds
Total time = 1.320530 seconds
Total time = 1.320314 seconds
Total time = 1.319560 seconds
Total time = 1.320278 seconds
sd = 0.1946746
mean = 1.382085
