Total time = 0.535248 seconds
Total time = 0.766445 seconds
Total time = 0.817274 seconds
Total time = 0.823295 seconds
Total time = 0.745122 seconds
Total time = 0.839260 seconds
Total time = 0.557022 seconds
Total time = 0.571580 seconds
Total time = 0.535317 seconds
Total time = 0.611308 seconds
sd = 0.1290728
mean = 0.6801871
